[
    {
        "tbTagID": "a1",
        "tbTagGroup": "Business Advisors",
        "tbTagName": "Mike Ba",
        "tbTagEntity": "ProjList",
        "tbTagPopular": "ProjList",
        "tbTagNameShort": "Mike Ba",
        "tbTagPurpose": "Project Tagging",
        "tbTagDescription": "NA",
        "tbTagOwner": "PMO",
        "tbTagSortOrder": "0",
        "tbTagCustomerID": "a44",
        "tbTagAzureID": "a0",
        "tbTagLastModified": "01/01/2020"
    },
    {
        "tbTagID": "a2",
        "tbTagGroup": "Business Advisors",
        "tbTagName": "Joe Ba",
        "tbTagEntity": "ProjList",
        "tbTagPopular": "ProjList",
        "tbTagNameShort": "Joe Ba",
        "tbTagPurpose": "Project Tagging",
        "tbTagDescription": "NA",
        "tbTagOwner": "PMO",
        "tbTagSortOrder": "0",
        "tbTagCustomerID": "a44",
        "tbTagAzureID": "a0",
        "tbTagLastModified": "01/01/2020"
    }
]
